weight,smoker,physical_activity_scale,BMI,height,male,life_expectancy
69,1,2,23,173,1,60
91,1,6,27,183,1,49
100,0,10,31,179,0,56
55,0,2,24,151,0,82
64,0,8,21,174,0,92
81,0,2,26,176,1,67
102,1,2,26,198,0,59
88,0,6,22,200,0,91
93,0,8,26,189,1,73
71,1,3,23,175,0,68
79,0,9,23,185,0,93
60,1,8,28,146,0,54
106,1,2,27,198,0,53
98,0,8,25,197,0,82
69,0,5,28,156,0,66
96,0,7,30,178,0,60
81,0,3,25,180,0,77
70,0,7,25,167,0,84
66,0,8,28,153,0,70
74,0,4,26,168,1,66
72,0,6,29,157,0,64
53,0,4,29,135,0,63
93,0,3,29,179,1,53
58,1,2,27,146,0,54
89,1,1,25,188,1,54
56,0,4,24,152,0,83
94,0,6,32,171,0,46
66,1,9,23,169,0,78
103,0,4,28,191,1,58
92,0,1,26,188,1,64
70,0,7,29,155,1,59
63,0,4,25,158,1,71
54,0,1,31,131,1,39
67,0,8,26,160,1,70
56,0,2,26,146,1,68
95,0,4,23,203,0,84
107,1,7,28,195,1,45
58,1,1,26,149,1,52
77,1,6,29,162,1,43
78,0,10,25,176,1,79
62,0,2,25,157,1,68
108,0,4,29,192,1,56
77,0,9,31,157,0,56
71,1,9,22,179,0,78
57,0,6,24,154,1,77
93,0,6,34,165,1,24
52,0,6,22,153,0,92
109,0,5,18,246,0,92
92,0,7,20,214,0,96
102,0,9,27,194,0,78
104,0,7,31,183,0,53
60,0,8,28,146,1,64
91,0,5,27,183,1,67
102,1,5,28,190,1,45
76,0,4,30,159,1,46
106,0,2,29,191,0,58
90,0,8,27,182,1,68
67,0,3,29,151,1,55
107,0,3,24,211,1,73
87,0,9,28,176,1,66
97,0,5,27,189,0,73
86,0,10,29,172,1,61
100,0,2,28,188,0,63
92,1,10,28,181,0,60
81,0,5,25,180,1,74
68,0,5,31,148,1,45
64,0,3,30,146,0,53
59,1,1,25,153,1,54
61,0,10,29,145,0,67
62,0,8,25,157,1,77
55,0,5,27,142,0,71
53,0,9,25,145,1,79
106,1,1,25,205,1,56
79,0,5,26,174,0,77
72,0,3,20,189,1,84
67,0,4,29,151,1,53
69,0,9,25,166,1,75
62,1,1,26,154,0,60
75,1,8,23,180,1,65
104,0,6,30,186,0,59
109,0,8,24,213,1,78
109,1,10,25,208,0,73
87,0,8,33,162,0,42
79,0,5,24,181,1,77
76,0,7,27,167,0,77
89,0,8,30,172,0,62
59,0,9,27,147,0,78
84,0,1,25,183,1,70
105,1,7,25,204,1,59
82,1,6,28,171,0,54
88,0,1,28,177,0,64
94,0,8,26,190,0,81
59,0,6,30,140,1,51
65,0,7,27,155,0,77
97,1,2,28,186,1,41
99,0,4,29,184,0,61
95,0,7,22,207,1,84
103,0,8,24,207,1,80
102,0,7,24,206,0,86
103,1,8,33,176,1,15
94,0,9,26,190,1,71
81,0,10,27,173,0,76
55,0,8,27,142,0,75
79,1,9,25,177,1,64
71,1,3,25,168,0,62
81,1,4,33,156,0,20
80,0,1,26,175,0,75
95,1,4,22,207,1,63
84,0,2,28,173,1,57
109,1,3,24,213,1,57
68,0,2,27,158,1,63
95,0,10,27,187,1,70
99,0,4,27,191,0,72
58,0,2,28,143,0,65
108,1,9,26,203,1,60
64,1,7,27,153,0,58
96,0,8,26,192,0,79
77,0,10,26,172,0,81
81,0,4,24,183,0,85
88,0,4,27,180,1,63
83,1,10,29,169,0,53
101,1,9,29,186,0,54
55,1,8,26,145,0,63
78,0,10,32,156,1,41
89,0,7,25,188,0,81
50,0,4,26,138,0,76
76,1,3,26,170,0,58
85,0,9,30,168,1,52
95,1,1,27,187,0,55
65,0,3,22,171,1,80
75,0,8,25,173,1,74
106,0,2,25,205,1,68
98,1,10,28,187,0,60
96,0,3,26,192,0,75
86,0,2,26,181,1,66
51,0,6,24,145,0,84
68,0,5,27,158,0,72
103,0,9,27,195,0,75
51,0,10,20,159,1,88
92,0,2,27,184,1,62
73,0,8,25,170,0,84
79,0,5,25,177,1,72
101,0,6,30,183,1,51
61,1,3,26,153,1,52
73,0,9,27,164,0,76
90,0,4,24,193,0,85
105,0,5,30,187,1,48
93,0,2,27,185,0,68
94,0,9,26,190,1,72
52,0,7,28,136,1,62
57,0,1,25,150,1,67
69,0,2,28,156,0,63
50,0,6,23,147,1,78
86,1,7,25,185,1,60
57,1,3,19,173,0,77
103,0,5,28,191,1,59
101,0,3,26,197,1,69
93,0,6,29,179,0,65
103,0,8,27,195,0,78
93,0,8,25,192,0,83
82,1,9,26,177,1,58
61,1,4,25,156,1,55
66,0,3,25,162,1,69
86,0,9,27,178,1,69
74,0,9,25,172,0,84
95,0,5,28,184,1,59
61,1,3,28,147,1,42
73,1,6,29,158,0,51
96,0,6,25,195,1,75
86,1,7,33,161,0,23
63,1,2,27,152,0,56
94,0,6,23,202,0,88
99,1,8,23,207,0,75
71,1,2,30,153,1,32
52,0,9,27,138,1,69
80,1,3,25,178,1,57
103,0,4,28,191,0,67
62,0,1,24,160,0,82
92,1,10,26,188,0,69
86,0,5,24,189,0,83
52,1,6,27,138,1,53
92,0,3,21,209,1,80
64,0,5,29,148,1,56
91,1,3,27,183,0,56
105,0,8,29,190,1,59
66,0,5,25,162,1,75
57,0,6,29,140,1,58
51,1,2,27,137,1,45
96,0,6,27,188,0,72
104,0,10,25,203,0,86
67,0,3,26,160,1,66
106,1,10,29,191,1,43
57,0,5,26,148,1,70
104,1,3,24,208,1,59
101,0,4,29,186,0,63
57,0,3,35,127,0,17
107,0,3,31,185,0,47
82,0,6,21,197,1,82
78,0,9,28,166,0,70
69,0,9,24,169,1,81
107,0,4,31,185,1,41
57,1,1,22,160,1,62
102,0,10,26,198,0,84
61,1,10,28,147,1,49
96,0,4,27,188,1,63
59,0,9,23,160,1,84
54,0,6,27,141,1,64
103,0,6,30,185,0,60
60,1,6,32,136,1,23
76,0,6,24,177,1,75
100,1,4,29,185,0,45
76,0,1,26,170,0,74
83,0,9,27,175,1,69
70,0,3,23,174,0,87
51,1,10,25,142,1,63
78,0,1,25,176,1,71
67,0,7,24,167,1,80
92,1,3,25,191,0,65
105,0,5,27,197,0,72
104,1,4,22,217,1,65
105,1,8,26,200,1,56
60,1,2,18,182,0,74
88,0,5,24,191,1,75
85,0,1,26,180,0,75
52,0,10,23,150,1,84
54,0,10,25,146,1,80
51,0,1,24,145,1,72
93,0,8,32,170,1,41
96,0,5,29,181,1,56
58,0,9,19,174,1,90
61,1,1,29,145,1,35
66,1,5,28,153,0,54
67,1,3,25,163,0,62
81,0,9,24,183,1,78
54,0,3,26,144,0,76
102,1,10,26,198,1,61
62,0,5,27,151,1,64
71,1,3,33,146,0,19
67,0,4,23,170,1,79
79,0,6,23,185,0,90
66,1,4,27,156,0,58
68,1,7,27,158,0,59
80,1,6,28,169,0,53
99,0,8,27,191,0,74
75,1,10,30,158,1,37
80,1,6,29,166,1,39
84,0,10,30,167,1,52
104,1,9,15,263,0,80
65,1,1,26,158,1,52
87,1,8,24,190,0,71
79,1,8,30,162,0,45
91,1,5,36,158,0,-4
96,0,8,27,188,1,70
80,0,10,29,166,0,68
93,0,5,29,179,0,63
54,1,5,26,144,1,55
98,0,8,24,202,1,80
102,0,4,20,225,0,93
93,0,3,31,173,1,40
60,0,1,26,151,0,75
81,1,4,25,180,0,63
98,1,9,25,197,1,61
97,0,6,27,189,1,65
67,1,8,22,174,1,69
74,0,1,27,165,1,63
51,0,6,26,140,0,78
50,0,6,28,133,1,60
62,0,8,27,151,1,68
63,0,6,26,155,0,76
84,0,3,27,176,0,73
104,0,5,24,208,0,82
52,0,7,28,136,1,63
103,0,4,25,202,1,72
75,1,1,26,169,0,56
78,0,1,21,192,0,85
76,0,1,29,161,0,59
75,1,8,23,180,0,77
53,1,5,30,132,1,34
54,1,1,25,146,1,52
95,0,5,29,180,1,55
63,1,3,27,152,0,58
88,0,1,28,177,1,57
53,0,5,22,155,1,83
104,1,9,24,208,1,65
87,0,1,25,186,0,76
99,0,7,25,198,1,75
55,0,2,26,145,0,73
91,0,6,26,187,1,68
60,0,6,23,161,1,78
94,1,4,32,171,0,30
68,0,7,25,164,0,83
88,1,3,31,168,1,26
95,0,1,30,177,1,47
69,0,3,28,156,1,57
83,0,8,23,189,0,91
92,0,6,22,204,1,82
54,0,2,20,164,0,91
57,1,6,27,145,1,53
51,0,5,27,137,1,65
89,1,9,23,196,1,69
80,0,10,29,166,0,69
104,0,7,24,208,1,78
70,1,6,22,178,1,67
59,0,2,21,167,1,79
71,1,7,26,165,0,64
104,0,7,25,203,1,73
69,1,6,27,159,1,52
104,1,3,25,203,0,66
106,0,8,24,210,1,80
95,0,10,27,187,1,68
60,0,7,25,154,0,85
71,0,8,28,159,1,61
98,0,6,28,187,0,67
52,1,6,30,131,0,45
101,0,5,25,200,1,72
107,0,7,26,202,0,79
53,1,9,29,135,0,51
71,0,4,23,175,0,88
97,0,2,26,193,1,65
60,0,4,27,149,1,62
92,1,7,24,195,0,69
91,0,2,27,183,0,70
88,1,2,27,180,0,56
88,0,6,28,177,0,69
65,1,7,26,158,0,64
74,0,2,27,165,1,61
56,1,6,26,146,1,57
89,0,5,33,164,0,35
107,0,9,24,211,0,88
81,0,4,28,170,0,65
96,0,6,25,195,1,75
63,0,6,25,158,0,84
102,1,5,24,206,0,69
60,0,3,26,151,0,73
51,0,10,24,145,0,88
102,1,10,29,187,0,51
74,0,6,28,162,1,60
106,1,7,24,210,0,71
97,0,4,32,174,1,35
88,0,8,24,191,1,81
63,0,9,28,150,0,71
98,0,9,28,187,0,71
65,1,10,33,140,0,29
91,0,2,24,194,1,73
53,1,10,22,155,0,77
92,0,10,24,195,0,90
73,0,3,24,174,0,80
104,1,1,25,203,0,61
101,0,5,30,183,1,51
82,0,2,25,181,0,79
92,0,8,27,184,1,68
99,1,1,29,184,1,38
79,0,7,24,181,1,77
85,1,10,26,180,0,65
58,0,7,35,128,0,25
88,1,4,23,195,0,71
66,0,8,29,150,1,60
54,0,8,32,129,1,39
68,0,6,26,161,1,72
90,0,5,29,176,0,65
104,0,5,25,203,1,75
63,0,7,30,144,0,60
60,0,10,29,143,0,70
51,0,10,22,152,1,84
71,0,6,24,171,1,78
50,1,7,29,131,0,51
75,0,2,29,160,1,50
107,0,8,30,188,1,53
77,0,2,24,179,0,80
90,0,1,25,189,1,70
74,0,2,26,168,0,73
80,1,5,29,166,1,38
101,1,9,29,186,1,43
50,1,7,29,131,0,48
56,0,2,30,136,0,53
64,0,2,28,151,0,66
57,1,7,24,154,1,62
98,0,1,27,190,0,68
103,0,7,25,202,0,84
84,0,1,24,187,1,72
108,0,7,24,212,0,84
74,0,7,23,179,0,91
92,1,3,28,181,1,42
53,1,8,27,140,0,59
92,1,9,24,195,0,75
62,0,7,29,146,1,58
91,0,1,27,183,1,61
53,0,10,31,130,1,46
81,0,7,29,167,1,58
85,0,8,23,192,0,90
88,1,5,31,168,0,35
70,0,8,27,161,1,70
56,0,8,27,144,1,68
94,0,9,23,202,0,92
107,0,7,33,180,1,31
98,0,5,27,190,0,73
78,1,10,30,161,1,41
51,0,8,24,145,1,80
97,0,5,32,174,1,36
92,1,1,20,214,0,72
70,1,8,26,164,0,64
72,1,4,27,163,0,57
70,0,3,27,161,0,73
66,0,3,28,153,1,57
67,1,5,26,160,1,55
109,0,2,32,184,0,40
65,0,8,31,144,0,52
97,0,4,28,186,1,57
82,0,5,29,168,0,64
76,0,4,33,151,1,29
56,0,5,28,141,0,68
86,1,9,25,185,0,68
85,0,3,22,196,0,88
83,0,6,24,185,0,83
76,0,2,26,170,1,68
84,1,4,26,179,0,61
50,0,9,27,136,0,76
85,0,10,28,174,0,72
105,0,5,27,197,0,75
59,1,7,24,156,1,64
63,0,7,31,142,1,45
90,0,3,22,202,1,78
62,0,6,29,146,1,57
105,1,8,26,200,0,66
73,0,9,24,174,0,89
66,1,7,28,153,0,54
108,0,3,26,203,0,76
68,0,6,25,164,1,75
103,0,8,22,216,0,90
93,0,10,27,185,0,80
87,0,7,28,176,1,61
104,1,5,30,186,1,35
107,0,4,27,199,0,70
101,0,6,28,189,0,69
79,1,8,30,162,0,46
79,0,2,31,159,0,46
91,1,5,28,180,0,51
75,1,6,22,184,1,69
76,1,2,31,156,0,35
83,0,2,25,182,0,76
86,0,7,30,169,1,50
102,0,2,29,187,1,53
109,1,10,20,233,1,72
101,0,2,27,193,1,61
73,0,1,25,170,0,77
101,0,6,28,189,0,67
89,1,1,32,166,0,23
91,0,3,28,180,1,57
57,1,6,30,137,1,34
83,0,1,23,189,0,84
53,0,7,23,151,1,81
85,0,6,28,174,0,71
62,0,8,28,148,1,63
72,1,4,29,157,0,48
95,1,2,26,191,1,52
109,1,6,28,197,1,46
101,0,8,20,224,0,96
82,0,8,27,174,0,78
62,0,7,22,167,1,81
86,1,9,26,181,0,67
57,0,6,27,145,1,66
68,0,9,25,164,0,84
71,0,7,29,156,0,67
70,0,1,24,170,1,72
66,0,6,25,162,1,73
102,0,1,29,187,0,58
109,0,7,27,200,1,68
69,0,5,30,151,1,51
78,0,1,27,169,1,60
90,0,8,30,173,1,54
87,0,10,22,198,0,92
107,0,7,26,202,0,79
51,0,1,29,132,1,49
56,0,8,24,152,1,79
100,0,10,30,182,1,54
93,1,1,28,182,1,43
104,0,8,20,228,1,87
95,0,7,31,175,0,52
61,0,3,27,150,1,65
63,1,1,22,169,0,68
100,0,8,26,196,1,72
64,0,9,26,156,1,73
74,1,1,26,168,1,49
71,1,8,27,162,0,60
51,0,6,32,126,1,37
51,0,5,25,142,0,80
76,0,4,26,170,1,66
97,0,7,30,179,1,53
96,0,3,26,192,0,76
87,0,10,26,182,1,75
62,0,4,27,151,0,73
74,1,1,26,168,1,50
92,1,10,22,204,1,69
96,0,8,26,192,0,81
52,1,9,23,150,1,70
80,0,2,23,186,1,76
105,0,9,29,190,1,57
81,1,6,31,161,1,31
80,0,6,28,169,0,70
91,0,4,27,183,1,63
